Winter 2017/Labs/Lab 2/lab2 part 2/simulation/qsim/ALU.msim.vcd
$comment
	File created using the following command:
		vcd file ALU.msim.vcd -direction
$end
$date
	Thu Jan 19 16:18:35 2017
$end
$version
	ModelSim Version 10.3d
$end
$timescale
	1ps
$end

$scope module ALU_vlg_vec_tst $end
$var reg 2 ! ALUControl [1:0] $end
$var reg 32 " inputA [31:0] $end
$var reg 32 # inputB [31:0] $end
$var wire 1 $ ALU_RESULT [31] $end
$var wire 1 % ALU_RESULT [30] $end
$var wire 1 & ALU_RESULT [29] $end
$var wire 1 ' ALU_RESULT [28] $end
$var wire 1 ( ALU_RESULT [27] $end
$var wire 1 ) ALU_RESULT [26] $end
$var wire 1 * ALU_RESULT [25] $end
$var wire 1 + ALU_RESULT [24] $end
$var wire 1 , ALU_RESULT [23] $end
$var wire 1 - ALU_RESULT [22] $end
$var wire 1 . ALU_RESULT [21] $end
$var wire 1 / ALU_RESULT [20] $end
$var wire 1 0 ALU_RESULT [19] $end
$var wire 1 1 ALU_RESULT [18] $end
$var wire 1 2 ALU_RESULT [17] $end
$var wire 1 3 ALU_RESULT [16] $end
$var wire 1 4 ALU_RESULT [15] $end
$var wire 1 5 ALU_RESULT [14] $end
$var wire 1 6 ALU_RESULT [13] $end
$var wire 1 7 ALU_RESULT [12] $end
$var wire 1 8 ALU_RESULT [11] $end
$var wire 1 9 ALU_RESULT [10] $end
$var wire 1 : ALU_RESULT [9] $end
$var wire 1 ; ALU_RESULT [8] $end
$var wire 1 < ALU_RESULT [7] $end
$var wire 1 = ALU_RESULT [6] $end
$var wire 1 > ALU_RESULT [5] $end
$var wire 1 ? ALU_RESULT [4] $end
$var wire 1 @ ALU_RESULT [3] $end
$var wire 1 A ALU_RESULT [2] $end
$var wire 1 B ALU_RESULT [1] $end
$var wire 1 C ALU_RESULT [0] $end
$var wire 1 D sampler $end

$scope module i1 $end
$var wire 1 E gnd $end
$var wire 1 F vcc $end
$var wire 1 G unknown $end
$var tri1 1 H devclrn $end
$var tri1 1 I devpor $end
$var tri1 1 J devoe $end
$var wire 1 K ~QUARTUS_CREATED_GND~I_combout $end
$var wire 1 L ALUControl[0]~input_o $end
$var wire 1 M ALUControl[1]~input_o $end
$var wire 1 N inputA[0]~input_o $end
$var wire 1 O inputB[0]~input_o $end
$var wire 1 P Add0~130_cout $end
$var wire 1 Q Add0~1_sumout $end
$var wire 1 R ALU_RESULT[0]~0_combout $end
$var wire 1 S inputA[1]~input_o $end
$var wire 1 T inputB[1]~input_o $end
$var wire 1 U Add0~2 $end
$var wire 1 V Add0~5_sumout $end
$var wire 1 W ALU_RESULT[1]~1_combout $end
$var wire 1 X inputB[2]~input_o $end
$var wire 1 Y inputA[2]~input_o $end
$var wire 1 Z Add0~6 $end
$var wire 1 [ Add0~9_sumout $end
$var wire 1 \ ALU_RESULT[2]~2_combout $end
$var wire 1 ] inputA[3]~input_o $end
$var wire 1 ^ inputB[3]~input_o $end
$var wire 1 _ Add0~10 $end
$var wire 1 ` Add0~13_sumout $end
$var wire 1 a ALU_RESULT[3]~3_combout $end
$var wire 1 b inputB[4]~input_o $end
$var wire 1 c inputA[4]~input_o $end
$var wire 1 d Add0~14 $end
$var wire 1 e Add0~17_sumout $end
$var wire 1 f ALU_RESULT[4]~4_combout $end
$var wire 1 g inputB[5]~input_o $end
$var wire 1 h inputA[5]~input_o $end
$var wire 1 i Add0~18 $end
$var wire 1 j Add0~21_sumout $end
$var wire 1 k ALU_RESULT[5]~5_combout $end
$var wire 1 l inputB[6]~input_o $end
$var wire 1 m inputA[6]~input_o $end
$var wire 1 n Add0~22 $end
$var wire 1 o Add0~25_sumout $end
$var wire 1 p ALU_RESULT[6]~6_combout $end
$var wire 1 q inputB[7]~input_o $end
$var wire 1 r inputA[7]~input_o $end
$var wire 1 s Add0~26 $end
$var wire 1 t Add0~29_sumout $end
$var wire 1 u ALU_RESULT[7]~7_combout $end
$var wire 1 v inputB[8]~input_o $end
$var wire 1 w inputA[8]~input_o $end
$var wire 1 x Add0~30 $end
$var wire 1 y Add0~33_sumout $end
$var wire 1 z ALU_RESULT[8]~8_combout $end
$var wire 1 { inputB[9]~input_o $end
$var wire 1 | inputA[9]~input_o $end
$var wire 1 } Add0~34 $end
$var wire 1 ~ Add0~37_sumout $end
$var wire 1 !! ALU_RESULT[9]~9_combout $end
$var wire 1 "! inputB[10]~input_o $end
$var wire 1 #! inputA[10]~input_o $end
$var wire 1 $! Add0~38 $end
$var wire 1 %! Add0~41_sumout $end
$var wire 1 &! ALU_RESULT[10]~10_combout $end
$var wire 1 '! inputB[11]~input_o $end
$var wire 1 (! inputA[11]~input_o $end
$var wire 1 )! Add0~42 $end
$var wire 1 *! Add0~45_sumout $end
$var wire 1 +! ALU_RESULT[11]~11_combout $end
$var wire 1 ,! inputB[12]~input_o $end
$var wire 1 -! inputA[12]~input_o $end
$var wire 1 .! Add0~46 $end
$var wire 1 /! Add0~49_sumout $end
$var wire 1 0! ALU_RESULT[12]~12_combout $end
$var wire 1 1! inputA[13]~input_o $end
$var wire 1 2! inputB[13]~input_o $end
$var wire 1 3! Add0~50 $end
$var wire 1 4! Add0~53_sumout $end
$var wire 1 5! ALU_RESULT[13]~13_combout $end
$var wire 1 6! inputA[14]~input_o $end
$var wire 1 7! inputB[14]~input_o $end
$var wire 1 8! Add0~54 $end
$var wire 1 9! Add0~57_sumout $end
$var wire 1 :! ALU_RESULT[14]~14_combout $end
$var wire 1 ;! inputA[15]~input_o $end
$var wire 1 <! inputB[15]~input_o $end
$var wire 1 =! Add0~58 $end
$var wire 1 >! Add0~61_sumout $end
$var wire 1 ?! ALU_RESULT[15]~15_combout $end
$var wire 1 @! inputB[16]~input_o $end
$var wire 1 A! inputA[16]~input_o $end
$var wire 1 B! Add0~62 $end
$var wire 1 C! Add0~65_sumout $end
$var wire 1 D! ALU_RESULT[16]~16_combout $end
$var wire 1 E! inputB[17]~input_o $end
$var wire 1 F! inputA[17]~input_o $end
$var wire 1 G! Add0~66 $end
$var wire 1 H! Add0~69_sumout $end
$var wire 1 I! ALU_RESULT[17]~17_combout $end
$var wire 1 J! inputA[18]~input_o $end
$var wire 1 K! inputB[18]~input_o $end
$var wire 1 L! Add0~70 $end
$var wire 1 M! Add0~73_sumout $end
$var wire 1 N! ALU_RESULT[18]~18_combout $end
$var wire 1 O! inputA[19]~input_o $end
$var wire 1 P! inputB[19]~input_o $end
$var wire 1 Q! Add0~74 $end
$var wire 1 R! Add0~77_sumout $end
$var wire 1 S! ALU_RESULT[19]~19_combout $end
$var wire 1 T! inputA[20]~input_o $end
$var wire 1 U! inputB[20]~input_o $end
$var wire 1 V! Add0~78 $end
$var wire 1 W! Add0~81_sumout $end
$var wire 1 X! ALU_RESULT[20]~20_combout $end
$var wire 1 Y! inputB[21]~input_o $end
$var wire 1 Z! inputA[21]~input_o $end
$var wire 1 [! Add0~82 $end
$var wire 1 \! Add0~85_sumout $end
$var wire 1 ]! ALU_RESULT[21]~21_combout $end
$var wire 1 ^! inputA[22]~input_o $end
$var wire 1 _! inputB[22]~input_o $end
$var wire 1 `! Add0~86 $end
$var wire 1 a! Add0~89_sumout $end
$var wire 1 b! ALU_RESULT[22]~22_combout $end
$var wire 1 c! inputA[23]~input_o $end
$var wire 1 d! inputB[23]~input_o $end
$var wire 1 e! Add0~90 $end
$var wire 1 f! Add0~93_sumout $end
$var wire 1 g! ALU_RESULT[23]~23_combout $end
$var wire 1 h! inputB[24]~input_o $end
$var wire 1 i! inputA[24]~input_o $end
$var wire 1 j! Add0~94 $end
$var wire 1 k! Add0~97_sumout $end
$var wire 1 l! ALU_RESULT[24]~24_combout $end
$var wire 1 m! inputA[25]~input_o $end
$var wire 1 n! inputB[25]~input_o $end
$var wire 1 o! Add0~98 $end
$var wire 1 p! Add0~101_sumout $end
$var wire 1 q! ALU_RESULT[25]~25_combout $end
$var wire 1 r! inputA[26]~input_o $end
$var wire 1 s! inputB[26]~input_o $end
$var wire 1 t! Add0~102 $end
$var wire 1 u! Add0~105_sumout $end
$var wire 1 v! ALU_RESULT[26]~26_combout $end
$var wire 1 w! inputB[27]~input_o $end
$var wire 1 x! inputA[27]~input_o $end
$var wire 1 y! Add0~106 $end
$var wire 1 z! Add0~109_sumout $end
$var wire 1 {! ALU_RESULT[27]~27_combout $end
$var wire 1 |! inputB[28]~input_o $end
$var wire 1 }! inputA[28]~input_o $end
$var wire 1 ~! Add0~110 $end
$var wire 1 !" Add0~113_sumout $end
$var wire 1 "" ALU_RESULT[28]~28_combout $end
$var wire 1 #" inputA[29]~input_o $end
$var wire 1 $" inputB[29]~input_o $end
$var wire 1 %" Add0~114 $end
$var wire 1 &" Add0~117_sumout $end
$var wire 1 '" ALU_RESULT[29]~29_combout $end
$var wire 1 (" inputA[30]~input_o $end
$var wire 1 )" inputB[30]~input_o $end
$var wire 1 *" Add0~118 $end
$var wire 1 +" Add0~121_sumout $end
$var wire 1 ," ALU_RESULT[30]~30_combout $end
$var wire 1 -" inputA[31]~input_o $end
$var wire 1 ." inputB[31]~input_o $end
$var wire 1 /" Add0~122 $end
$var wire 1 0" Add0~125_sumout $end
$var wire 1 1" ALU_RESULT[31]~31_combout $end
$upscope $end
$upscope $end
$enddefinitions $end
#0
$dumpvars
b10 !
b0 "
b0 #
0C
0B
0A
0@
0?
0>
0=
0<
0;
0:
09
08
07
06
05
04
03
02
01
00
0/
0.
0-
0,
0+
0*
0)
0(
0'
0&
0%
0$
xD
0E
1F
xG
1H
1I
1J
0K
0L
1M
0N
0O
0P
0Q
0R
0S
0T
0U
0V
0W
0X
0Y
0Z
0[
0\
0]
0^
0_
0`
0a
0b
0c
0d
0e
0f
0g
0h
0i
0j
0k
0l
0m
0n
0o
0p
0q
0r
0s
0t
0u
0v
0w
0x
0y
0z
0{
0|
0}
0~
0!!
0"!
0#!
0$!
0%!
0&!
0'!
0(!
0)!
0*!
0+!
0,!
0-!
0.!
0/!
00!
01!
02!
03!
04!
05!
06!
07!
08!
09!
0:!
0;!
0<!
0=!
0>!
0?!
0@!
0A!
0B!
0C!
0D!
0E!
0F!
0G!
0H!
0I!
0J!
0K!
0L!
0M!
0N!
0O!
0P!
0Q!
0R!
0S!
0T!
0U!
0V!
0W!
0X!
0Y!
0Z!
0[!
0\!
0]!
0^!
0_!
0`!
0a!
0b!
0c!
0d!
0e!
0f!
0g!
0h!
0i!
0j!
0k!
0l!
0m!
0n!
0o!
0p!
0q!
0r!
0s!
0t!
0u!
0v!
0w!
0x!
0y!
0z!
0{!
0|!
0}!
0~!
0!"
0""
0#"
0$"
0%"
0&"
0'"
0("
0)"
0*"
0+"
0,"
0-"
0."
0/"
00"
01"
$end
#10000
b11 !
1L
0D
10"
1+"
1&"
1!"
1z!
1u!
1p!
1k!
1f!
1a!
1\!
1W!
1R!
1M!
1H!
1C!
1>!
19!
14!
1/!
1*!
1%!
1~
1y
1t
1o
1j
1e
1`
1[
1V
1Q
1P
1U
0Q
1R
1W
1\
1a
1f
1k
1p
1u
1z
1!!
1&!
1+!
10!
15!
1:!
1?!
1D!
1I!
1N!
1S!
1X!
1]!
1b!
1g!
1l!
1q!
1v!
1{!
1""
1'"
1,"
11"
1Z
0V
1$
1%
1&
1'
1(
1)
1*
1+
1,
1-
1.
1/
10
11
12
13
14
15
16
17
18
19
1:
1;
1<
1=
1>
1?
1@
1A
1B
1C
0R
1_
0[
0C
0W
1d
0`
0B
0\
1i
0e
0A
0a
1n
0j
0@
0f
1s
0o
0?
0k
1x
0t
0>
0p
1}
0y
0=
0u
1$!
0~
0<
0z
1)!
0%!
0;
0!!
1.!
0*!
0:
0&!
13!
0/!
09
0+!
18!
04!
08
00!
1=!
09!
07
05!
1B!
0>!
06
0:!
1G!
0C!
05
0?!
1L!
0H!
04
0D!
1Q!
0M!
03
0I!
1V!
0R!
02
0N!
1[!
0W!
01
0S!
1`!
0\!
00
0X!
1e!
0a!
0/
0]!
1j!
0f!
0.
0b!
1o!
0k!
0-
0g!
1t!
0p!
0,
0l!
1y!
0u!
0+
0q!
1~!
0z!
0*
0v!
1%"
0!"
0)
0{!
1*"
0&"
0(
0""
1/"
0+"
0'
0'"
00"
0&
0,"
0%
01"
0$
#20000
b1 !
b0 !
0L
0M
1D
#30000
b1 !
1L
0D
#40000
b11 !
b10 !
0L
1M
1D
10"
0/"
1+"
0*"
1&"
0%"
1!"
0~!
1z!
0y!
1u!
0t!
1p!
0o!
1k!
0j!
1f!
0e!
1a!
0`!
1\!
0[!
1W!
0V!
1R!
0Q!
1M!
0L!
1H!
0G!
1C!
0B!
1>!
0=!
19!
08!
14!
03!
1/!
0.!
1*!
0)!
1%!
0$!
1~
0}
1y
0x
1t
0s
1o
0n
1j
0i
1e
0d
1`
0_
1[
0Z
1V
0U
1Q
0P
00"
0+"
0&"
0!"
0z!
0u!
0p!
0k!
0f!
0a!
0\!
0W!
0R!
0M!
0H!
0C!
0>!
09!
04!
0/!
0*!
0%!
0~
0y
0t
0o
0j
0e
0`
0[
0V
0Q
1R
1W
1\
1a
1f
1k
1p
1u
1z
1!!
1&!
1+!
10!
15!
1:!
1?!
1D!
1I!
1N!
1S!
1X!
1]!
1b!
1g!
1l!
1q!
1v!
1{!
1""
1'"
1,"
11"
1$
1%
1&
1'
1(
1)
1*
1+
1,
1-
1.
1/
10
11
12
13
14
15
16
17
18
19
1:
1;
1<
1=
1>
1?
1@
1A
1B
1C
0R
0W
0\
0a
0f
0k
0p
0u
0z
0!!
0&!
0+!
00!
05!
0:!
0?!
0D!
0I!
0N!
0S!
0X!
0]!
0b!
0g!
0l!
0q!
0v!
0{!
0""
0'"
0,"
01"
0$
0%
0&
0'
0(
0)
0*
0+
0,
0-
0.
0/
00
01
02
03
04
05
06
07
08
09
0:
0;
0<
0=
0>
0?
0@
0A
0B
0C
#50000
b11 !
1L
0D
10"
1+"
1&"
1!"
1z!
1u!
1p!
1k!
1f!
1a!
1\!
1W!
1R!
1M!
1H!
1C!
1>!
19!
14!
1/!
1*!
1%!
1~
1y
1t
1o
1j
1e
1`
1[
1V
1Q
1P
1U
0Q
1R
1W
1\
1a
1f
1k
1p
1u
1z
1!!
1&!
1+!
10!
15!
1:!
1?!
1D!
1I!
1N!
1S!
1X!
1]!
1b!
1g!
1l!
1q!
1v!
1{!
1""
1'"
1,"
11"
1Z
0V
1$
1%
1&
1'
1(
1)
1*
1+
1,
1-
1.
1/
10
11
12
13
14
15
16
17
18
19
1:
1;
1<
1=
1>
1?
1@
1A
1B
1C
0R
1_
0[
0C
0W
1d
0`
0B
0\
1i
0e
0A
0a
1n
0j
0@
0f
1s
0o
0?
0k
1x
0t
0>
0p
1}
0y
0=
0u
1$!
0~
0<
0z
1)!
0%!
0;
0!!
1.!
0*!
0:
0&!
13!
0/!
09
0+!
18!
04!
08
00!
1=!
09!
07
05!
1B!
0>!
06
0:!
1G!
0C!
05
0?!
1L!
0H!
04
0D!
1Q!
0M!
03
0I!
1V!
0R!
02
0N!
1[!
0W!
01
0S!
1`!
0\!
00
0X!
1e!
0a!
0/
0]!
1j!
0f!
0.
0b!
1o!
0k!
0-
0g!
1t!
0p!
0,
0l!
1y!
0u!
0+
0q!
1~!
0z!
0*
0v!
1%"
0!"
0)
0{!
1*"
0&"
0(
0""
1/"
0+"
0'
0'"
00"
0&
0,"
0%
01"
0$
#60000
b1 !
b0 !
0L
0M
1D
#70000
b1 !
1L
0D
#80000
b11 !
b10 !
0L
1M
1D
10"
0/"
1+"
0*"
1&"
0%"
1!"
0~!
1z!
0y!
1u!
0t!
1p!
0o!
1k!
0j!
1f!
0e!
1a!
0`!
1\!
0[!
1W!
0V!
1R!
0Q!
1M!
0L!
1H!
0G!
1C!
0B!
1>!
0=!
19!
08!
14!
03!
1/!
0.!
1*!
0)!
1%!
0$!
1~
0}
1y
0x
1t
0s
1o
0n
1j
0i
1e
0d
1`
0_
1[
0Z
1V
0U
1Q
0P
00"
0+"
0&"
0!"
0z!
0u!
0p!
0k!
0f!
0a!
0\!
0W!
0R!
0M!
0H!
0C!
0>!
09!
04!
0/!
0*!
0%!
0~
0y
0t
0o
0j
0e
0`
0[
0V
0Q
1R
1W
1\
1a
1f
1k
1p
1u
1z
1!!
1&!
1+!
10!
15!
1:!
1?!
1D!
1I!
1N!
1S!
1X!
1]!
1b!
1g!
1l!
1q!
1v!
1{!
1""
1'"
1,"
11"
1$
1%
1&
1'
1(
1)
1*
1+
1,
1-
1.
1/
10
11
12
13
14
15
16
17
18
19
1:
1;
1<
1=
1>
1?
1@
1A
1B
1C
0R
0W
0\
0a
0f
0k
0p
0u
0z
0!!
0&!
0+!
00!
05!
0:!
0?!
0D!
0I!
0N!
0S!
0X!
0]!
0b!
0g!
0l!
0q!
0v!
0{!
0""
0'"
0,"
01"
0$
0%
0&
0'
0(
0)
0*
0+
0,
0-
0.
0/
00
01
02
03
04
05
06
07
08
09
0:
0;
0<
0=
0>
0?
0@
0A
0B
0C
#90000
b11 !
1L
0D
10"
1+"
1&"
1!"
1z!
1u!
1p!
1k!
1f!
1a!
1\!
1W!
1R!
1M!
1H!
1C!
1>!
19!
14!
1/!
1*!
1%!
1~
1y
1t
1o
1j
1e
1`
1[
1V
1Q
1P
1U
0Q
1R
1W
1\
1a
1f
1k
1p
1u
1z
1!!
1&!
1+!
10!
15!
1:!
1?!
1D!
1I!
1N!
1S!
1X!
1]!
1b!
1g!
1l!
1q!
1v!
1{!
1""
1'"
1,"
11"
1Z
0V
1$
1%
1&
1'
1(
1)
1*
1+
1,
1-
1.
1/
10
11
12
13
14
15
16
17
18
19
1:
1;
1<
1=
1>
1?
1@
1A
1B
1C
0R
1_
0[
0C
0W
1d
0`
0B
0\
1i
0e
0A
0a
1n
0j
0@
0f
1s
0o
0?
0k
1x
0t
0>
0p
1}
0y
0=
0u
1$!
0~
0<
0z
1)!
0%!
0;
0!!
1.!
0*!
0:
0&!
13!
0/!
09
0+!
18!
04!
08
00!
1=!
09!
07
05!
1B!
0>!
06
0:!
1G!
0C!
05
0?!
1L!
0H!
04
0D!
1Q!
0M!
03
0I!
1V!
0R!
02
0N!
1[!
0W!
01
0S!
1`!
0\!
00
0X!
1e!
0a!
0/
0]!
1j!
0f!
0.
0b!
1o!
0k!
0-
0g!
1t!
0p!
0,
0l!
1y!
0u!
0+
0q!
1~!
0z!
0*
0v!
1%"
0!"
0)
0{!
1*"
0&"
0(
0""
1/"
0+"
0'
0'"
00"
0&
0,"
0%
01"
0$
#100000
b1 !
b0 !
0L
0M
1D
#110000
b1 !
1L
0D
#120000
b11 !
b10 !
0L
1M
1D
10"
0/"
1+"
0*"
1&"
0%"
1!"
0~!
1z!
0y!
1u!
0t!
1p!
0o!
1k!
0j!
1f!
0e!
1a!
0`!
1\!
0[!
1W!
0V!
1R!
0Q!
1M!
0L!
1H!
0G!
1C!
0B!
1>!
0=!
19!
08!
14!
03!
1/!
0.!
1*!
0)!
1%!
0$!
1~
0}
1y
0x
1t
0s
1o
0n
1j
0i
1e
0d
1`
0_
1[
0Z
1V
0U
1Q
0P
00"
0+"
0&"
0!"
0z!
0u!
0p!
0k!
0f!
0a!
0\!
0W!
0R!
0M!
0H!
0C!
0>!
09!
04!
0/!
0*!
0%!
0~
0y
0t
0o
0j
0e
0`
0[
0V
0Q
1R
1W
1\
1a
1f
1k
1p
1u
1z
1!!
1&!
1+!
10!
15!
1:!
1?!
1D!
1I!
1N!
1S!
1X!
1]!
1b!
1g!
1l!
1q!
1v!
1{!
1""
1'"
1,"
11"
1$
1%
1&
1'
1(
1)
1*
1+
1,
1-
1.
1/
10
11
12
13
14
15
16
17
18
19
1:
1;
1<
1=
1>
1?
1@
1A
1B
1C
0R
0W
0\
0a
0f
0k
0p
0u
0z
0!!
0&!
0+!
00!
05!
0:!
0?!
0D!
0I!
0N!
0S!
0X!
0]!
0b!
0g!
0l!
0q!
0v!
0{!
0""
0'"
0,"
01"
0$
0%
0&
0'
0(
0)
0*
0+
0,
0-
0.
0/
00
01
02
03
04
05
06
07
08
09
0:
0;
0<
0=
0>
0?
0@
0A
0B
0C
#130000
b11 !
1L
0D
10"
1+"
1&"
1!"
1z!
1u!
1p!
1k!
1f!
1a!
1\!
1W!
1R!
1M!
1H!
1C!
1>!
19!
14!
1/!
1*!
1%!
1~
1y
1t
1o
1j
1e
1`
1[
1V
1Q
1P
1U
0Q
1R
1W
1\
1a
1f
1k
1p
1u
1z
1!!
1&!
1+!
10!
15!
1:!
1?!
1D!
1I!
1N!
1S!
1X!
1]!
1b!
1g!
1l!
1q!
1v!
1{!
1""
1'"
1,"
11"
1Z
0V
1$
1%
1&
1'
1(
1)
1*
1+
1,
1-
1.
1/
10
11
12
13
14
15
16
17
18
19
1:
1;
1<
1=
1>
1?
1@
1A
1B
1C
0R
1_
0[
0C
0W
1d
0`
0B
0\
1i
0e
0A
0a
1n
0j
0@
0f
1s
0o
0?
0k
1x
0t
0>
0p
1}
0y
0=
0u
1$!
0~
0<
0z
1)!
0%!
0;
0!!
1.!
0*!
0:
0&!
13!
0/!
09
0+!
18!
04!
08
00!
1=!
09!
07
05!
1B!
0>!
06
0:!
1G!
0C!
05
0?!
1L!
0H!
04
0D!
1Q!
0M!
03
0I!
1V!
0R!
02
0N!
1[!
0W!
01
0S!
1`!
0\!
00
0X!
1e!
0a!
0/
0]!
1j!
0f!
0.
0b!
1o!
0k!
0-
0g!
1t!
0p!
0,
0l!
1y!
0u!
0+
0q!
1~!
0z!
0*
0v!
1%"
0!"
0)
0{!
1*"
0&"
0(
0""
1/"
0+"
0'
0'"
00"
0&
0,"
0%
01"
0$
#140000
b1 !
b0 !
0L
0M
1D
#150000
b1 !
1L
0D
#160000
b11 !
b10 !
0L
1M
1D
10"
0/"
1+"
0*"
1&"
0%"
1!"
0~!
1z!
0y!
1u!
0t!
1p!
0o!
1k!
0j!
1f!
0e!
1a!
0`!
1\!
0[!
1W!
0V!
1R!
0Q!
1M!
0L!
1H!
0G!
1C!
0B!
1>!
0=!
19!
08!
14!
03!
1/!
0.!
1*!
0)!
1%!
0$!
1~
0}
1y
0x
1t
0s
1o
0n
1j
0i
1e
0d
1`
0_
1[
0Z
1V
0U
1Q
0P
00"
0+"
0&"
0!"
0z!
0u!
0p!
0k!
0f!
0a!
0\!
0W!
0R!
0M!
0H!
0C!
0>!
09!
04!
0/!
0*!
0%!
0~
0y
0t
0o
0j
0e
0`
0[
0V
0Q
1R
1W
1\
1a
1f
1k
1p
1u
1z
1!!
1&!
1+!
10!
15!
1:!
1?!
1D!
1I!
1N!
1S!
1X!
1]!
1b!
1g!
1l!
1q!
1v!
1{!
1""
1'"
1,"
11"
1$
1%
1&
1'
1(
1)
1*
1+
1,
1-
1.
1/
10
11
12
13
14
15
16
17
18
19
1:
1;
1<
1=
1>
1?
1@
1A
1B
1C
0R
0W
0\
0a
0f
0k
0p
0u
0z
0!!
0&!
0+!
00!
05!
0:!
0?!
0D!
0I!
0N!
0S!
0X!
0]!
0b!
0g!
0l!
0q!
0v!
0{!
0""
0'"
0,"
01"
0$
0%
0&
0'
0(
0)
0*
0+
0,
0-
0.
0/
00
01
02
03
04
05
06
07
08
09
0:
0;
0<
0=
0>
0?
0@
0A
0B
0C
#170000
b11 !
1L
0D
10"
1+"
1&"
1!"
1z!
1u!
1p!
1k!
1f!
1a!
1\!
1W!
1R!
1M!
1H!
1C!
1>!
19!
14!
1/!
1*!
1%!
1~
1y
1t
1o
1j
1e
1`
1[
1V
1Q
1P
1U
0Q
1R
1W
1\
1a
1f
1k
1p
1u
1z
1!!
1&!
1+!
10!
15!
1:!
1?!
1D!
1I!
1N!
1S!
1X!
1]!
1b!
1g!
1l!
1q!
1v!
1{!
1""
1'"
1,"
11"
1Z
0V
1$
1%
1&
1'
1(
1)
1*
1+
1,
1-
1.
1/
10
11
12
13
14
15
16
17
18
19
1:
1;
1<
1=
1>
1?
1@
1A
1B
1C
0R
1_
0[
0C
0W
1d
0`
0B
0\
1i
0e
0A
0a
1n
0j
0@
0f
1s
0o
0?
0k
1x
0t
0>
0p
1}
0y
0=
0u
1$!
0~
0<
0z
1)!
0%!
0;
0!!
1.!
0*!
0:
0&!
13!
0/!
09
0+!
18!
04!
08
00!
1=!
09!
07
05!
1B!
0>!
06
0:!
1G!
0C!
05
0?!
1L!
0H!
04
0D!
1Q!
0M!
03
0I!
1V!
0R!
02
0N!
1[!
0W!
01
0S!
1`!
0\!
00
0X!
1e!
0a!
0/
0]!
1j!
0f!
0.
0b!
1o!
0k!
0-
0g!
1t!
0p!
0,
0l!
1y!
0u!
0+
0q!
1~!
0z!
0*
0v!
1%"
0!"
0)
0{!
1*"
0&"
0(
0""
1/"
0+"
0'
0'"
00"
0&
0,"
0%
01"
0$
#180000
b1 !
b0 !
0L
0M
1D
#190000
b1 !
1L
0D
#200000
b11 !
b10 !
0L
1M
1D
10"
0/"
1+"
0*"
1&"
0%"
1!"
0~!
1z!
0y!
1u!
0t!
1p!
0o!
1k!
0j!
1f!
0e!
1a!
0`!
1\!
0[!
1W!
0V!
1R!
0Q!
1M!
0L!
1H!
0G!
1C!
0B!
1>!
0=!
19!
08!
14!
03!
1/!
0.!
1*!
0)!
1%!
0$!
1~
0}
1y
0x
1t
0s
1o
0n
1j
0i
1e
0d
1`
0_
1[
0Z
1V
0U
1Q
0P
00"
0+"
0&"
0!"
0z!
0u!
0p!
0k!
0f!
0a!
0\!
0W!
0R!
0M!
0H!
0C!
0>!
09!
04!
0/!
0*!
0%!
0~
0y
0t
0o
0j
0e
0`
0[
0V
0Q
1R
1W
1\
1a
1f
1k
1p
1u
1z
1!!
1&!
1+!
10!
15!
1:!
1?!
1D!
1I!
1N!
1S!
1X!
1]!
1b!
1g!
1l!
1q!
1v!
1{!
1""
1'"
1,"
11"
1$
1%
1&
1'
1(
1)
1*
1+
1,
1-
1.
1/
10
11
12
13
14
15
16
17
18
19
1:
1;
1<
1=
1>
1?
1@
1A
1B
1C
0R
0W
0\
0a
0f
0k
0p
0u
0z
0!!
0&!
0+!
00!
05!
0:!
0?!
0D!
0I!
0N!
0S!
0X!
0]!
0b!
0g!
0l!
0q!
0v!
0{!
0""
0'"
0,"
01"
0$
0%
0&
0'
0(
0)
0*
0+
0,
0-
0.
0/
00
01
02
03
04
05
06
07
08
09
0:
0;
0<
0=
0>
0?
0@
0A
0B
0C
#210000
b11 !
1L
0D
10"
1+"
1&"
1!"
1z!
1u!
1p!
1k!
1f!
1a!
1\!
1W!
1R!
1M!
1H!
1C!
1>!
19!
14!
1/!
1*!
1%!
1~
1y
1t
1o
1j
1e
1`
1[
1V
1Q
1P
1U
0Q
1R
1W
1\
1a
1f
1k
1p
1u
1z
1!!
1&!
1+!
10!
15!
1:!
1?!
1D!
1I!
1N!
1S!
1X!
1]!
1b!
1g!
1l!
1q!
1v!
1{!
1""
1'"
1,"
11"
1Z
0V
1$
1%
1&
1'
1(
1)
1*
1+
1,
1-
1.
1/
10
11
12
13
14
15
16
17
18
19
1:
1;
1<
1=
1>
1?
1@
1A
1B
1C
0R
1_
0[
0C
0W
1d
0`
0B
0\
1i
0e
0A
0a
1n
0j
0@
0f
1s
0o
0?
0k
1x
0t
0>
0p
1}
0y
0=
0u
1$!
0~
0<
0z
1)!
0%!
0;
0!!
1.!
0*!
0:
0&!
13!
0/!
09
0+!
18!
04!
08
00!
1=!
09!
07
05!
1B!
0>!
06
0:!
1G!
0C!
05
0?!
1L!
0H!
04
0D!
1Q!
0M!
03
0I!
1V!
0R!
02
0N!
1[!
0W!
01
0S!
1`!
0\!
00
0X!
1e!
0a!
0/
0]!
1j!
0f!
0.
0b!
1o!
0k!
0-
0g!
1t!
0p!
0,
0l!
1y!
0u!
0+
0q!
1~!
0z!
0*
0v!
1%"
0!"
0)
0{!
1*"
0&"
0(
0""
1/"
0+"
0'
0'"
00"
0&
0,"
0%
01"
0$
#220000
b1 !
b0 !
0L
0M
1D
#230000
b1 !
1L
0D
#240000
b11 !
b10 !
0L
1M
1D
10"
0/"
1+"
0*"
1&"
0%"
1!"
0~!
1z!
0y!
1u!
0t!
1p!
0o!
1k!
0j!
1f!
0e!
1a!
0`!
1\!
0[!
1W!
0V!
1R!
0Q!
1M!
0L!
1H!
0G!
1C!
0B!
1>!
0=!
19!
08!
14!
03!
1/!
0.!
1*!
0)!
1%!
0$!
1~
0}
1y
0x
1t
0s
1o
0n
1j
0i
1e
0d
1`
0_
1[
0Z
1V
0U
1Q
0P
00"
0+"
0&"
0!"
0z!
0u!
0p!
0k!
0f!
0a!
0\!
0W!
0R!
0M!
0H!
0C!
0>!
09!
04!
0/!
0*!
0%!
0~
0y
0t
0o
0j
0e
0`
0[
0V
0Q
1R
1W
1\
1a
1f
1k
1p
1u
1z
1!!
1&!
1+!
10!
15!
1:!
1?!
1D!
1I!
1N!
1S!
1X!
1]!
1b!
1g!
1l!
1q!
1v!
1{!
1""
1'"
1,"
11"
1$
1%
1&
1'
1(
1)
1*
1+
1,
1-
1.
1/
10
11
12
13
14
15
16
17
18
19
1:
1;
1<
1=
1>
1?
1@
1A
1B
1C
0R
0W
0\
0a
0f
0k
0p
0u
0z
0!!
0&!
0+!
00!
05!
0:!
0?!
0D!
0I!
0N!
0S!
0X!
0]!
0b!
0g!
0l!
0q!
0v!
0{!
0""
0'"
0,"
01"
0$
0%
0&
0'
0(
0)
0*
0+
0,
0-
0.
0/
00
01
02
03
04
05
06
07
08
09
0:
0;
0<
0=
0>
0?
0@
0A
0B
0C
