Winter 2017/Labs/Lab_9/Lab_9/Lab_9_Design_Project/Lab_9_New/simulation/qsim/Lab_9.msim.vcd
$comment
	File created using the following command:
		vcd file Lab_9.msim.vcd -direction
$end
$date
	Sun May 06 20:00:56 2018
$end
$version
	ModelSim Version 10.5b
$end
$timescale
	1ps
$end

$scope module top_file_vhd_vec_tst $end
$var wire 1 ! clock $end
$var wire 1 " reset $end
$var wire 1 # serial_out $end

$scope module i1 $end
$var wire 1 $ gnd $end
$var wire 1 % vcc $end
$var wire 1 & unknown $end
$var wire 1 ' devoe $end
$var wire 1 ( devclrn $end
$var wire 1 ) devpor $end
$var wire 1 * ww_devoe $end
$var wire 1 + ww_devclrn $end
$var wire 1 , ww_devpor $end
$var wire 1 - ww_reset $end
$var wire 1 . ww_clock $end
$var wire 1 / ww_serial_out $end
$var wire 1 0 \reset~input_o\ $end
$var wire 1 1 \clock~input_o\ $end
$var wire 1 2 \~QUARTUS_CREATED_GND~I_combout\ $end
$upscope $end
$upscope $end
$enddefinitions $end
#0
$dumpvars
0!
0"
0#
0$
1%
x&
1'
1(
1)
1*
1+
1,
0-
0.
0/
00
01
x2
$end
#10000
1!
1.
11
#20000
0!
0.
01
#30000
1!
1.
11
#40000
0!
0.
01
#50000
1!
1.
11
#60000
0!
1"
0.
1-
10
01
#70000
1!
1.
11
#80000
0!
0.
01
#90000
1!
1.
11
#100000
0!
0.
01
#110000
1!
1.
11
#120000
0!
0.
01
#130000
1!
1.
11
#140000
0!
0.
01
#150000
1!
1.
11
#160000
0!
0.
01
#170000
1!
1.
11
#180000
0!
0.
01
#190000
1!
1.
11
#200000
0!
0.
01
#210000
1!
1.
11
#220000
0!
0.
01
#230000
1!
1.
11
#240000
0!
0.
01
#250000
1!
1.
11
#260000
0!
0.
01
#270000
1!
1.
11
#280000
0!
0.
01
#290000
1!
1.
11
#300000
0!
0.
01
#310000
1!
1.
11
#320000
0!
0.
01
#330000
1!
1.
11
#340000
0!
0.
01
#350000
1!
1.
11
#360000
0!
0.
01
#370000
1!
1.
11
#380000
0!
0.
01
#390000
1!
1.
11
#400000
0!
0.
01
#410000
1!
1.
11
#420000
0!
0.
01
#430000
1!
1.
11
#440000
0!
0.
01
#450000
1!
1.
11
#460000
0!
0.
01
#470000
1!
1.
11
#480000
0!
0.
01
#490000
1!
1.
11
#500000
0!
0.
01
#510000
1!
1.
11
#520000
0!
0.
01
#530000
1!
1.
11
#540000
0!
0.
01
#550000
1!
1.
11
#560000
0!
0.
01
#570000
1!
1.
11
#580000
0!
0.
01
#590000
1!
1.
11
#600000
0!
0.
01
#610000
1!
1.
11
#620000
0!
0.
01
#630000
1!
1.
11
#640000
0!
0.
01
#650000
1!
1.
11
#660000
0!
0.
01
#670000
1!
1.
11
#680000
0!
0.
01
#690000
1!
1.
11
#700000
0!
0.
01
#710000
1!
1.
11
#720000
0!
0.
01
#730000
1!
1.
11
#740000
0!
0.
01
#750000
1!
1.
11
#760000
0!
0.
01
#770000
1!
1.
11
#780000
0!
0.
01
#790000
1!
1.
11
#800000
0!
0.
01
#810000
1!
1.
11
#820000
0!
0.
01
#830000
1!
1.
11
#840000
0!
0.
01
#850000
1!
1.
11
#860000
0!
0.
01
#870000
1!
0"
1.
0-
00
11
#880000
0!
0.
01
#890000
1!
1.
11
#900000
0!
0.
01
#910000
1!
1.
11
#920000
0!
0.
01
#930000
1!
1.
11
#940000
0!
0.
01
#950000
1!
1.
11
#960000
0!
0.
01
#970000
1!
1.
11
#980000
0!
0.
01
#990000
1!
1.
11
