Winter 2017/Labs/Lab_8/Simple_ALU/simulation/qsim/Simple_ALU.msim.vcd
$comment
	File created using the following command:
		vcd file Simple_ALU.msim.vcd -direction
$end
$date
	Tue May 02 16:29:00 2017
$end
$version
	ModelSim Version 10.3d
$end
$timescale
	1ps
$end

$scope module Simple_ALU_vlg_vec_tst $end
$var reg 2 ! ALUControl [1:0] $end
$var reg 32 " inputA [31:0] $end
$var reg 32 # inputB [31:0] $end
$var wire 1 $ ALU_Reult [31] $end
$var wire 1 % ALU_Reult [30] $end
$var wire 1 & ALU_Reult [29] $end
$var wire 1 ' ALU_Reult [28] $end
$var wire 1 ( ALU_Reult [27] $end
$var wire 1 ) ALU_Reult [26] $end
$var wire 1 * ALU_Reult [25] $end
$var wire 1 + ALU_Reult [24] $end
$var wire 1 , ALU_Reult [23] $end
$var wire 1 - ALU_Reult [22] $end
$var wire 1 . ALU_Reult [21] $end
$var wire 1 / ALU_Reult [20] $end
$var wire 1 0 ALU_Reult [19] $end
$var wire 1 1 ALU_Reult [18] $end
$var wire 1 2 ALU_Reult [17] $end
$var wire 1 3 ALU_Reult [16] $end
$var wire 1 4 ALU_Reult [15] $end
$var wire 1 5 ALU_Reult [14] $end
$var wire 1 6 ALU_Reult [13] $end
$var wire 1 7 ALU_Reult [12] $end
$var wire 1 8 ALU_Reult [11] $end
$var wire 1 9 ALU_Reult [10] $end
$var wire 1 : ALU_Reult [9] $end
$var wire 1 ; ALU_Reult [8] $end
$var wire 1 < ALU_Reult [7] $end
$var wire 1 = ALU_Reult [6] $end
$var wire 1 > ALU_Reult [5] $end
$var wire 1 ? ALU_Reult [4] $end
$var wire 1 @ ALU_Reult [3] $end
$var wire 1 A ALU_Reult [2] $end
$var wire 1 B ALU_Reult [1] $end
$var wire 1 C ALU_Reult [0] $end
$var wire 1 D sampler $end

$scope module i1 $end
$var wire 1 E gnd $end
$var wire 1 F vcc $end
$var wire 1 G unknown $end
$var tri1 1 H devclrn $end
$var tri1 1 I devpor $end
$var tri1 1 J devoe $end
$var wire 1 K ~QUARTUS_CREATED_GND~I_combout $end
$var wire 1 L ALUControl[1]~input_o $end
$var wire 1 M ALUControl[0]~input_o $end
$var wire 1 N inputA[0]~input_o $end
$var wire 1 O inputB[0]~input_o $end
$var wire 1 P Add0~130_cout $end
$var wire 1 Q Add0~1_sumout $end
$var wire 1 R ALU_Reult[0]~0_combout $end
$var wire 1 S inputA[1]~input_o $end
$var wire 1 T inputB[1]~input_o $end
$var wire 1 U Add0~2 $end
$var wire 1 V Add0~5_sumout $end
$var wire 1 W ALU_Reult[1]~1_combout $end
$var wire 1 X inputB[2]~input_o $end
$var wire 1 Y inputA[2]~input_o $end
$var wire 1 Z Add0~6 $end
$var wire 1 [ Add0~9_sumout $end
$var wire 1 \ ALU_Reult[2]~2_combout $end
$var wire 1 ] inputA[3]~input_o $end
$var wire 1 ^ inputB[3]~input_o $end
$var wire 1 _ Add0~10 $end
$var wire 1 ` Add0~13_sumout $end
$var wire 1 a ALU_Reult[3]~3_combout $end
$var wire 1 b inputA[4]~input_o $end
$var wire 1 c inputB[4]~input_o $end
$var wire 1 d Add0~14 $end
$var wire 1 e Add0~17_sumout $end
$var wire 1 f ALU_Reult[4]~4_combout $end
$var wire 1 g inputB[5]~input_o $end
$var wire 1 h inputA[5]~input_o $end
$var wire 1 i Add0~18 $end
$var wire 1 j Add0~21_sumout $end
$var wire 1 k ALU_Reult[5]~5_combout $end
$var wire 1 l inputA[6]~input_o $end
$var wire 1 m inputB[6]~input_o $end
$var wire 1 n Add0~22 $end
$var wire 1 o Add0~25_sumout $end
$var wire 1 p ALU_Reult[6]~6_combout $end
$var wire 1 q inputB[7]~input_o $end
$var wire 1 r inputA[7]~input_o $end
$var wire 1 s Add0~26 $end
$var wire 1 t Add0~29_sumout $end
$var wire 1 u ALU_Reult[7]~7_combout $end
$var wire 1 v inputB[8]~input_o $end
$var wire 1 w inputA[8]~input_o $end
$var wire 1 x Add0~30 $end
$var wire 1 y Add0~33_sumout $end
$var wire 1 z ALU_Reult[8]~8_combout $end
$var wire 1 { inputA[9]~input_o $end
$var wire 1 | inputB[9]~input_o $end
$var wire 1 } Add0~34 $end
$var wire 1 ~ Add0~37_sumout $end
$var wire 1 !! ALU_Reult[9]~9_combout $end
$var wire 1 "! inputB[10]~input_o $end
$var wire 1 #! inputA[10]~input_o $end
$var wire 1 $! Add0~38 $end
$var wire 1 %! Add0~41_sumout $end
$var wire 1 &! ALU_Reult[10]~10_combout $end
$var wire 1 '! inputB[11]~input_o $end
$var wire 1 (! inputA[11]~input_o $end
$var wire 1 )! Add0~42 $end
$var wire 1 *! Add0~45_sumout $end
$var wire 1 +! ALU_Reult[11]~11_combout $end
$var wire 1 ,! inputA[12]~input_o $end
$var wire 1 -! inputB[12]~input_o $end
$var wire 1 .! Add0~46 $end
$var wire 1 /! Add0~49_sumout $end
$var wire 1 0! ALU_Reult[12]~12_combout $end
$var wire 1 1! inputA[13]~input_o $end
$var wire 1 2! inputB[13]~input_o $end
$var wire 1 3! Add0~50 $end
$var wire 1 4! Add0~53_sumout $end
$var wire 1 5! ALU_Reult[13]~13_combout $end
$var wire 1 6! inputB[14]~input_o $end
$var wire 1 7! inputA[14]~input_o $end
$var wire 1 8! Add0~54 $end
$var wire 1 9! Add0~57_sumout $end
$var wire 1 :! ALU_Reult[14]~14_combout $end
$var wire 1 ;! inputA[15]~input_o $end
$var wire 1 <! inputB[15]~input_o $end
$var wire 1 =! Add0~58 $end
$var wire 1 >! Add0~61_sumout $end
$var wire 1 ?! ALU_Reult[15]~15_combout $end
$var wire 1 @! inputA[16]~input_o $end
$var wire 1 A! inputB[16]~input_o $end
$var wire 1 B! Add0~62 $end
$var wire 1 C! Add0~65_sumout $end
$var wire 1 D! ALU_Reult[16]~16_combout $end
$var wire 1 E! inputB[17]~input_o $end
$var wire 1 F! inputA[17]~input_o $end
$var wire 1 G! Add0~66 $end
$var wire 1 H! Add0~69_sumout $end
$var wire 1 I! ALU_Reult[17]~17_combout $end
$var wire 1 J! inputB[18]~input_o $end
$var wire 1 K! inputA[18]~input_o $end
$var wire 1 L! Add0~70 $end
$var wire 1 M! Add0~73_sumout $end
$var wire 1 N! ALU_Reult[18]~18_combout $end
$var wire 1 O! inputA[19]~input_o $end
$var wire 1 P! inputB[19]~input_o $end
$var wire 1 Q! Add0~74 $end
$var wire 1 R! Add0~77_sumout $end
$var wire 1 S! ALU_Reult[19]~19_combout $end
$var wire 1 T! inputA[20]~input_o $end
$var wire 1 U! inputB[20]~input_o $end
$var wire 1 V! Add0~78 $end
$var wire 1 W! Add0~81_sumout $end
$var wire 1 X! ALU_Reult[20]~20_combout $end
$var wire 1 Y! inputB[21]~input_o $end
$var wire 1 Z! inputA[21]~input_o $end
$var wire 1 [! Add0~82 $end
$var wire 1 \! Add0~85_sumout $end
$var wire 1 ]! ALU_Reult[21]~21_combout $end
$var wire 1 ^! inputA[22]~input_o $end
$var wire 1 _! inputB[22]~input_o $end
$var wire 1 `! Add0~86 $end
$var wire 1 a! Add0~89_sumout $end
$var wire 1 b! ALU_Reult[22]~22_combout $end
$var wire 1 c! inputA[23]~input_o $end
$var wire 1 d! inputB[23]~input_o $end
$var wire 1 e! Add0~90 $end
$var wire 1 f! Add0~93_sumout $end
$var wire 1 g! ALU_Reult[23]~23_combout $end
$var wire 1 h! inputA[24]~input_o $end
$var wire 1 i! inputB[24]~input_o $end
$var wire 1 j! Add0~94 $end
$var wire 1 k! Add0~97_sumout $end
$var wire 1 l! ALU_Reult[24]~24_combout $end
$var wire 1 m! inputA[25]~input_o $end
$var wire 1 n! inputB[25]~input_o $end
$var wire 1 o! Add0~98 $end
$var wire 1 p! Add0~101_sumout $end
$var wire 1 q! ALU_Reult[25]~25_combout $end
$var wire 1 r! inputA[26]~input_o $end
$var wire 1 s! inputB[26]~input_o $end
$var wire 1 t! Add0~102 $end
$var wire 1 u! Add0~105_sumout $end
$var wire 1 v! ALU_Reult[26]~26_combout $end
$var wire 1 w! inputB[27]~input_o $end
$var wire 1 x! inputA[27]~input_o $end
$var wire 1 y! Add0~106 $end
$var wire 1 z! Add0~109_sumout $end
$var wire 1 {! ALU_Reult[27]~27_combout $end
$var wire 1 |! inputA[28]~input_o $end
$var wire 1 }! inputB[28]~input_o $end
$var wire 1 ~! Add0~110 $end
$var wire 1 !" Add0~113_sumout $end
$var wire 1 "" ALU_Reult[28]~28_combout $end
$var wire 1 #" inputB[29]~input_o $end
$var wire 1 $" inputA[29]~input_o $end
$var wire 1 %" Add0~114 $end
$var wire 1 &" Add0~117_sumout $end
$var wire 1 '" ALU_Reult[29]~29_combout $end
$var wire 1 (" inputA[30]~input_o $end
$var wire 1 )" inputB[30]~input_o $end
$var wire 1 *" Add0~118 $end
$var wire 1 +" Add0~121_sumout $end
$var wire 1 ," ALU_Reult[30]~30_combout $end
$var wire 1 -" inputB[31]~input_o $end
$var wire 1 ." inputA[31]~input_o $end
$var wire 1 /" Add0~122 $end
$var wire 1 0" Add0~125_sumout $end
$var wire 1 1" ALU_Reult[31]~31_combout $end
$upscope $end
$upscope $end
$enddefinitions $end
#0
$dumpvars
b10 !
b1 "
b1 #
0C
1B
0A
0@
0?
0>
0=
0<
0;
0:
09
08
07
06
05
04
03
02
01
00
0/
0.
0-
0,
0+
0*
0)
0(
0'
0&
0%
0$
xD
0E
1F
xG
1H
1I
1J
0K
1L
0M
1N
1O
0P
0Q
0R
0S
0T
1U
1V
1W
0X
0Y
0Z
0[
0\
0]
0^
0_
0`
0a
0b
0c
0d
0e
0f
0g
0h
0i
0j
0k
0l
0m
0n
0o
0p
0q
0r
0s
0t
0u
0v
0w
0x
0y
0z
0{
0|
0}
0~
0!!
0"!
0#!
0$!
0%!
0&!
0'!
0(!
0)!
0*!
0+!
0,!
0-!
0.!
0/!
00!
01!
02!
03!
04!
05!
06!
07!
08!
09!
0:!
0;!
0<!
0=!
0>!
0?!
0@!
0A!
0B!
0C!
0D!
0E!
0F!
0G!
0H!
0I!
0J!
0K!
0L!
0M!
0N!
0O!
0P!
0Q!
0R!
0S!
0T!
0U!
0V!
0W!
0X!
0Y!
0Z!
0[!
0\!
0]!
0^!
0_!
0`!
0a!
0b!
0c!
0d!
0e!
0f!
0g!
0h!
0i!
0j!
0k!
0l!
0m!
0n!
0o!
0p!
0q!
0r!
0s!
0t!
0u!
0v!
0w!
0x!
0y!
0z!
0{!
0|!
0}!
0~!
0!"
0""
0#"
0$"
0%"
0&"
0'"
0("
0)"
0*"
0+"
0,"
0-"
0."
0/"
00"
01"
$end
#2000000
b1000000000000000000000000000001 #
b1100000000000000000000000000001 #
b1110000000000000000000000000001 #
b1111000000000000000000000000001 #
b1111100000000000000000000000001 #
b1111110000000000000000000000001 #
b1111111000000000000000000000001 #
b1111111100000000000000000000001 #
b1111111110000000000000000000001 #
b1111111111000000000000000000001 #
b1111111111100000000000000000001 #
b1111111111110000000000000000001 #
b1111111111111000000000000000001 #
b1111111111111100000000000000001 #
b1111111111111110000000000000001 #
b1111111111111111000000000000001 #
b1111111111111111100000000000001 #
b1111111111111111110000000000001 #
b1111111111111111111000000000001 #
b1111111111111111111100000000001 #
b1111111111111111111110000000001 #
b1111111111111111111111000000001 #
b1111111111111111111111100000001 #
b1111111111111111111111110000001 #
b1111111111111111111111111000001 #
b1111111111111111111111111100001 #
b1111111111111111111111111110001 #
b1111111111111111111111111111001 #
b1111111111111111111111111111101 #
b1111111111111111111111111111111 #
1T
1X
1^
1c
1g
1m
1q
1v
1|
1"!
1'!
1-!
12!
16!
1<!
1A!
1E!
1J!
1P!
1U!
1Y!
1_!
1d!
1i!
1n!
1s!
1w!
1}!
1#"
1)"
0D
1+"
1&"
1!"
1z!
1u!
1p!
1k!
1f!
1a!
1\!
1W!
1R!
1M!
1H!
1C!
1>!
19!
14!
1/!
1*!
1%!
1~
1y
1t
1o
1j
1e
1`
1[
1Z
0V
1_
0[
0W
1\
1a
1f
1k
1p
1u
1z
1!!
1&!
1+!
10!
15!
1:!
1?!
1D!
1I!
1N!
1S!
1X!
1]!
1b!
1g!
1l!
1q!
1v!
1{!
1""
1'"
1,"
1d
0`
1%
1&
1'
1(
1)
1*
1+
1,
1-
1.
1/
10
11
12
13
14
15
16
17
18
19
1:
1;
1<
1=
1>
1?
1@
1A
0B
0\
1i
0e
0A
0a
1n
0j
0@
0f
1s
0o
0?
0k
1x
0t
0>
0p
1}
0y
0=
0u
1$!
0~
0<
0z
1)!
0%!
0;
0!!
1.!
0*!
0:
0&!
13!
0/!
09
0+!
18!
04!
08
00!
1=!
09!
07
05!
1B!
0>!
06
0:!
1G!
0C!
05
0?!
1L!
0H!
04
0D!
1Q!
0M!
03
0I!
1V!
0R!
02
0N!
1[!
0W!
01
0S!
1`!
0\!
00
0X!
1e!
0a!
0/
0]!
1j!
0f!
0.
0b!
1o!
0k!
0-
0g!
1t!
0p!
0,
0l!
1y!
0u!
0+
0q!
1~!
0z!
0*
0v!
1%"
0!"
0)
0{!
1*"
0&"
0(
0""
1/"
0+"
0'
0'"
10"
0&
0,"
0%
11"
1$
#4000000
b0 "
b111111111111111111111111111111 #
b11111111111111111111111111111 #
b1111111111111111111111111111 #
b111111111111111111111111111 #
b11111111111111111111111111 #
b1111111111111111111111111 #
b111111111111111111111111 #
b11111111111111111111111 #
b1111111111111111111111 #
b111111111111111111111 #
b11111111111111111111 #
b1111111111111111111 #
b111111111111111111 #
b11111111111111111 #
b1111111111111111 #
b111111111111111 #
b11111111111111 #
b1111111111111 #
b111111111111 #
b11111111111 #
b1111111111 #
b111111111 #
b11111111 #
b1111111 #
b111111 #
b11111 #
b1111 #
b111 #
b11 #
b1 #
0T
0X
0^
0c
0g
0m
0q
0v
0|
0"!
0'!
0-!
02!
06!
0<!
0A!
0E!
0J!
0P!
0U!
0Y!
0_!
0d!
0i!
0n!
0s!
0w!
0}!
0#"
0)"
0N
1D
0U
1Q
0/"
1+"
0*"
1&"
0%"
1!"
0~!
1z!
0y!
1u!
0t!
1p!
0o!
1k!
0j!
1f!
0e!
1a!
0`!
1\!
0[!
1W!
0V!
1R!
0Q!
1M!
0L!
1H!
0G!
1C!
0B!
1>!
0=!
19!
08!
14!
03!
1/!
0.!
1*!
0)!
1%!
0$!
1~
0}
1y
0x
1t
0s
1o
0n
1j
0i
1e
0d
1`
0_
1[
0Z
1V
0V
00"
0+"
0&"
0!"
0z!
0u!
0p!
0k!
0f!
0a!
0\!
0W!
0R!
0M!
0H!
0C!
0>!
09!
04!
0/!
0*!
0%!
0~
0y
0t
0o
0j
0e
0`
0[
1W
1\
1a
1f
1k
1p
1u
1z
1!!
1&!
1+!
10!
15!
1:!
1?!
1D!
1I!
1N!
1S!
1X!
1]!
1b!
1g!
1l!
1q!
1v!
1{!
1""
1'"
1,"
1R
1C
1%
1&
1'
1(
1)
1*
1+
1,
1-
1.
1/
10
11
12
13
14
15
16
17
18
19
1:
1;
1<
1=
1>
1?
1@
1A
1B
0\
0a
0f
0k
0p
0u
0z
0!!
0&!
0+!
00!
05!
0:!
0?!
0D!
0I!
0N!
0S!
0X!
0]!
0b!
0g!
0l!
0q!
0v!
0{!
0""
0'"
0,"
01"
0W
0B
0$
0%
0&
0'
0(
0)
0*
0+
0,
0-
0.
0/
00
01
02
03
04
05
06
07
08
09
0:
0;
0<
0=
0>
0?
0@
0A
#6000000
b0 #
b1 "
1N
0O
0D
#8000000
b10000000000000000000000000000001 "
b11000000000000000000000000000001 "
b11100000000000000000000000000001 "
b11110000000000000000000000000001 "
b11111000000000000000000000000001 "
b11111100000000000000000000000001 "
b11111110000000000000000000000001 "
b11111111000000000000000000000001 "
b11111111100000000000000000000001 "
b11111111110000000000000000000001 "
b11111111111000000000000000000001 "
b11111111111100000000000000000001 "
b11111111111110000000000000000001 "
b11111111111111000000000000000001 "
b11111111111111100000000000000001 "
b11111111111111110000000000000001 "
b11111111111111111000000000000001 "
b11111111111111111100000000000001 "
b11111111111111111110000000000001 "
b11111111111111111111000000000001 "
b11111111111111111111100000000001 "
b11111111111111111111110000000001 "
b11111111111111111111111000000001 "
b11111111111111111111111100000001 "
b11111111111111111111111110000001 "
b11111111111111111111111111000001 "
b11111111111111111111111111100001 "
b11111111111111111111111111110001 "
b11111111111111111111111111111001 "
b11111111111111111111111111111101 "
b11111111111111111111111111111111 "
b10000000000000000000000000000000 #
b11000000000000000000000000000000 #
b11100000000000000000000000000000 #
b11110000000000000000000000000000 #
b11111000000000000000000000000000 #
b11111100000000000000000000000000 #
b11111110000000000000000000000000 #
b11111111000000000000000000000000 #
b11111111100000000000000000000000 #
b11111111110000000000000000000000 #
b11111111111000000000000000000000 #
b11111111111100000000000000000000 #
b11111111111110000000000000000000 #
b11111111111111000000000000000000 #
b11111111111111100000000000000000 #
b11111111111111110000000000000000 #
b11111111111111111000000000000000 #
b11111111111111111100000000000000 #
b11111111111111111110000000000000 #
b11111111111111111111000000000000 #
b11111111111111111111100000000000 #
b11111111111111111111110000000000 #
b11111111111111111111111000000000 #
b11111111111111111111111100000000 #
b11111111111111111111111110000000 #
b11111111111111111111111111000000 #
b11111111111111111111111111100000 #
b11111111111111111111111111110000 #
b11111111111111111111111111111000 #
b11111111111111111111111111111100 #
b11111111111111111111111111111110 #
b11111111111111111111111111111111 #
1O
1T
1X
1^
1c
1g
1m
1q
1v
1|
1"!
1'!
1-!
12!
16!
1<!
1A!
1E!
1J!
1P!
1U!
1Y!
1_!
1d!
1i!
1n!
1s!
1w!
1}!
1#"
1)"
1-"
1S
1Y
1]
1b
1h
1l
1r
1w
1{
1#!
1(!
1,!
11!
17!
1;!
1@!
1F!
1K!
1O!
1T!
1Z!
1^!
1c!
1h!
1m!
1r!
1x!
1|!
1$"
1("
1."
1D
1/"
1*"
1%"
1~!
1y!
1t!
1o!
1j!
1e!
1`!
1[!
1V!
1Q!
1L!
1G!
1B!
1=!
18!
13!
1.!
1)!
1$!
1}
1x
1s
1n
1i
1d
1_
1Z
1U
0Q
10"
1+"
1&"
1!"
1z!
1u!
1p!
1k!
1f!
1a!
1\!
1W!
1R!
1M!
1H!
1C!
1>!
19!
14!
1/!
1*!
1%!
1~
1y
1t
1o
1j
1e
1`
1[
1V
0R
0C
1W
1\
1a
1f
1k
1p
1u
1z
1!!
1&!
1+!
10!
15!
1:!
1?!
1D!
1I!
1N!
1S!
1X!
1]!
1b!
1g!
1l!
1q!
1v!
1{!
1""
1'"
1,"
11"
1$
1%
1&
1'
1(
1)
1*
1+
1,
1-
1.
1/
10
11
12
13
14
15
16
17
18
19
1:
1;
1<
1=
1>
1?
1@
1A
1B
#10000000
b11111111111111111111111111111110 "
b10111111111111111111111111111110 "
b10011111111111111111111111111110 "
b10001111111111111111111111111110 "
b10000111111111111111111111111110 "
b10000011111111111111111111111110 "
b10000001111111111111111111111110 "
b10000000111111111111111111111110 "
b10000000011111111111111111111110 "
b10000000001111111111111111111110 "
b10000000000111111111111111111110 "
b10000000000011111111111111111110 "
b10000000000001111111111111111110 "
b10000000000000111111111111111110 "
b10000000000000011111111111111110 "
b10000000000000001111111111111110 "
b10000000000000000111111111111110 "
b10000000000000000011111111111110 "
b10000000000000000001111111111110 "
b10000000000000000000111111111110 "
b10000000000000000000011111111110 "
b10000000000000000000001111111110 "
b10000000000000000000000111111110 "
b10000000000000000000000011111110 "
b10000000000000000000000001111110 "
b10000000000000000000000000111110 "
b10000000000000000000000000011110 "
b10000000000000000000000000001110 "
b10000000000000000000000000000110 "
b10000000000000000000000000000010 "
b10000000000000000000000000000000 "
0N
0S
0Y
0]
0b
0h
0l
0r
0w
0{
0#!
0(!
0,!
01!
07!
0;!
0@!
0F!
0K!
0O!
0T!
0Z!
0^!
0c!
0h!
0m!
0r!
0x!
0|!
0$"
0("
0D
0+"
0&"
0!"
0z!
0u!
0p!
0k!
0f!
0a!
0\!
0W!
0R!
0M!
0H!
0C!
0>!
09!
04!
0/!
0*!
0%!
0~
0y
0t
0o
0j
0e
0`
0[
0V
0U
1Q
0Z
1V
1R
0W
0\
0a
0f
0k
0p
0u
0z
0!!
0&!
0+!
00!
05!
0:!
0?!
0D!
0I!
0N!
0S!
0X!
0]!
0b!
0g!
0l!
0q!
0v!
0{!
0""
0'"
0,"
0_
1[
0%
0&
0'
0(
0)
0*
0+
0,
0-
0.
0/
00
01
02
03
04
05
06
07
08
09
0:
0;
0<
0=
0>
0?
0@
0A
0B
1C
1W
0d
1`
1B
1\
0i
1e
1A
1a
0n
1j
1@
1f
0s
1o
1?
1k
0x
1t
1>
1p
0}
1y
1=
1u
0$!
1~
1<
1z
0)!
1%!
1;
1!!
0.!
1*!
1:
1&!
03!
1/!
19
1+!
08!
14!
18
10!
0=!
19!
17
15!
0B!
1>!
16
1:!
0G!
1C!
15
1?!
0L!
1H!
14
1D!
0Q!
1M!
13
1I!
0V!
1R!
12
1N!
0[!
1W!
11
1S!
0`!
1\!
10
1X!
0e!
1a!
1/
1]!
0j!
1f!
1.
1b!
0o!
1k!
1-
1g!
0t!
1p!
1,
1l!
0y!
1u!
1+
1q!
0~!
1z!
1*
1v!
0%"
1!"
1)
1{!
0*"
1&"
1(
1""
0/"
1+"
1'
1'"
00"
1&
1,"
1%
01"
0$
#12000000
b11111111111111111111111111111110 #
b10000000000000000000000000000001 "
b11000000000000000000000000000001 "
b11100000000000000000000000000001 "
b11110000000000000000000000000001 "
b11111000000000000000000000000001 "
b11111100000000000000000000000001 "
b11111110000000000000000000000001 "
b11111111000000000000000000000001 "
b11111111100000000000000000000001 "
b11111111110000000000000000000001 "
b11111111111000000000000000000001 "
b11111111111100000000000000000001 "
b11111111111110000000000000000001 "
b11111111111111000000000000000001 "
b11111111111111100000000000000001 "
b11111111111111110000000000000001 "
b11111111111111111000000000000001 "
b11111111111111111100000000000001 "
b11111111111111111110000000000001 "
b11111111111111111111000000000001 "
b11111111111111111111100000000001 "
b11111111111111111111110000000001 "
b11111111111111111111111000000001 "
b11111111111111111111111100000001 "
b11111111111111111111111110000001 "
b11111111111111111111111111000001 "
b11111111111111111111111111100001 "
b11111111111111111111111111110001 "
b11111111111111111111111111111001 "
b11111111111111111111111111111101 "
b11111111111111111111111111111111 "
1N
1S
1Y
1]
1b
1h
1l
1r
1w
1{
1#!
1(!
1,!
11!
17!
1;!
1@!
1F!
1K!
1O!
1T!
1Z!
1^!
1c!
1h!
1m!
1r!
1x!
1|!
1$"
1("
0O
1D
1/"
0+"
1*"
0&"
1%"
0!"
1~!
0z!
1y!
0u!
1t!
0p!
1o!
0k!
1j!
0f!
1e!
0a!
1`!
0\!
1[!
0W!
1V!
0R!
1Q!
0M!
1L!
0H!
1G!
0C!
1B!
0>!
1=!
09!
18!
04!
13!
0/!
1.!
0*!
1)!
0%!
1$!
0~
1}
0y
1x
0t
1s
0o
1n
0j
1i
0e
1d
0`
1_
0[
1Z
0V
10"
1+"
1&"
1!"
1z!
1u!
1p!
1k!
1f!
1a!
1\!
1W!
1R!
1M!
1H!
1C!
1>!
19!
14!
1/!
1*!
1%!
1~
1y
1t
1o
1j
1e
1`
1[
0W
0\
0a
0f
0k
0p
0u
0z
0!!
0&!
0+!
00!
05!
0:!
0?!
0D!
0I!
0N!
0S!
0X!
0]!
0b!
0g!
0l!
0q!
0v!
0{!
0""
0'"
0,"
0%
0&
0'
0(
0)
0*
0+
0,
0-
0.
0/
00
01
02
03
04
05
06
07
08
09
0:
0;
0<
0=
0>
0?
0@
0A
0B
1\
1a
1f
1k
1p
1u
1z
1!!
1&!
1+!
10!
15!
1:!
1?!
1D!
1I!
1N!
1S!
1X!
1]!
1b!
1g!
1l!
1q!
1v!
1{!
1""
1'"
1,"
11"
1$
1%
1&
1'
1(
1)
1*
1+
1,
1-
1.
1/
10
11
12
13
14
15
16
17
18
19
1:
1;
1<
1=
1>
1?
1@
1A
#14000000
b1111111111111111111111111111111 "
b1111111111111111111111111111110 #
b111111111111111111111111111110 #
b11111111111111111111111111110 #
b1111111111111111111111111110 #
b111111111111111111111111110 #
b11111111111111111111111110 #
b1111111111111111111111110 #
b111111111111111111111110 #
b11111111111111111111110 #
b1111111111111111111110 #
b111111111111111111110 #
b11111111111111111110 #
b1111111111111111110 #
b111111111111111110 #
b11111111111111110 #
b1111111111111110 #
b111111111111110 #
b11111111111110 #
b1111111111110 #
b111111111110 #
b11111111110 #
b1111111110 #
b111111110 #
b11111110 #
b1111110 #
b111110 #
b11110 #
b1110 #
b110 #
b10 #
b0 #
b1111111111111111111111111111110 "
b111111111111111111111111111110 "
b11111111111111111111111111110 "
b1111111111111111111111111110 "
b111111111111111111111111110 "
b11111111111111111111111110 "
b1111111111111111111111110 "
b111111111111111111111110 "
b11111111111111111111110 "
b1111111111111111111110 "
b111111111111111111110 "
b11111111111111111110 "
b1111111111111111110 "
b111111111111111110 "
b11111111111111110 "
b1111111111111110 "
b111111111111110 "
b11111111111110 "
b1111111111110 "
b111111111110 "
b11111111110 "
b1111111110 "
b111111110 "
b11111110 "
b1111110 "
b111110 "
b11110 "
b1110 "
b110 "
b10 "
b0 "
0T
0X
0^
0c
0g
0m
0q
0v
0|
0"!
0'!
0-!
02!
06!
0<!
0A!
0E!
0J!
0P!
0U!
0Y!
0_!
0d!
0i!
0n!
0s!
0w!
0}!
0#"
0)"
0-"
0N
0S
0Y
0]
0b
0h
0l
0r
0w
0{
0#!
0(!
0,!
01!
07!
0;!
0@!
0F!
0K!
0O!
0T!
0Z!
0^!
0c!
0h!
0m!
0r!
0x!
0|!
0$"
0("
0."
0D
0/"
0*"
0%"
0~!
0y!
0t!
0o!
0j!
0e!
0`!
0[!
0V!
0Q!
0L!
0G!
0B!
0=!
08!
03!
0.!
0)!
0$!
0}
0x
0s
0n
0i
0d
0_
0Z
0Q
00"
0+"
0&"
0!"
0z!
0u!
0p!
0k!
0f!
0a!
0\!
0W!
0R!
0M!
0H!
0C!
0>!
09!
04!
0/!
0*!
0%!
0~
0y
0t
0o
0j
0e
0`
0[
0R
0C
0\
0a
0f
0k
0p
0u
0z
0!!
0&!
0+!
00!
05!
0:!
0?!
0D!
0I!
0N!
0S!
0X!
0]!
0b!
0g!
0l!
0q!
0v!
0{!
0""
0'"
0,"
01"
0$
0%
0&
0'
0(
0)
0*
0+
0,
0-
0.
0/
00
01
02
03
04
05
06
07
08
09
0:
0;
0<
0=
0>
0?
0@
0A
#24000000
b11 !
1M
1D
10"
1+"
1&"
1!"
1z!
1u!
1p!
1k!
1f!
1a!
1\!
1W!
1R!
1M!
1H!
1C!
1>!
19!
14!
1/!
1*!
1%!
1~
1y
1t
1o
1j
1e
1`
1[
1V
1Q
1P
1U
0Q
1R
1W
1\
1a
1f
1k
1p
1u
1z
1!!
1&!
1+!
10!
15!
1:!
1?!
1D!
1I!
1N!
1S!
1X!
1]!
1b!
1g!
1l!
1q!
1v!
1{!
1""
1'"
1,"
11"
1Z
0V
1$
1%
1&
1'
1(
1)
1*
1+
1,
1-
1.
1/
10
11
12
13
14
15
16
17
18
19
1:
1;
1<
1=
1>
1?
1@
1A
1B
1C
0R
1_
0[
0C
0W
1d
0`
0B
0\
1i
0e
0A
0a
1n
0j
0@
0f
1s
0o
0?
0k
1x
0t
0>
0p
1}
0y
0=
0u
1$!
0~
0<
0z
1)!
0%!
0;
0!!
1.!
0*!
0:
0&!
13!
0/!
09
0+!
18!
04!
08
00!
1=!
09!
07
05!
1B!
0>!
06
0:!
1G!
0C!
05
0?!
1L!
0H!
04
0D!
1Q!
0M!
03
0I!
1V!
0R!
02
0N!
1[!
0W!
01
0S!
1`!
0\!
00
0X!
1e!
0a!
0/
0]!
1j!
0f!
0.
0b!
1o!
0k!
0-
0g!
1t!
0p!
0,
0l!
1y!
0u!
0+
0q!
1~!
0z!
0*
0v!
1%"
0!"
0)
0{!
1*"
0&"
0(
0""
1/"
0+"
0'
0'"
00"
0&
0,"
0%
01"
0$
#50000000
b1 !
b0 !
0M
0L
0D
#74000000
b1 !
1M
1D
