Winter 2017/Labs/Lab 2/LAB2/simulation/qsim/LAB2.msim.vcd
$comment
	File created using the following command:
		vcd file LAB2.msim.vcd -direction
$end
$date
	Thu Jan 19 15:28:55 2017
$end
$version
	ModelSim Version 10.3d
$end
$timescale
	1ps
$end

$scope module LAB2_vlg_vec_tst $end
$var reg 1 ! CLK $end
$var reg 1 " RESET $end
$var wire 1 # result [7] $end
$var wire 1 $ result [6] $end
$var wire 1 % result [5] $end
$var wire 1 & result [4] $end
$var wire 1 ' result [3] $end
$var wire 1 ( result [2] $end
$var wire 1 ) result [1] $end
$var wire 1 * result [0] $end
$var wire 1 + sampler $end

$scope module i1 $end
$var wire 1 , gnd $end
$var wire 1 - vcc $end
$var wire 1 . unknown $end
$var tri1 1 / devclrn $end
$var tri1 1 0 devpor $end
$var tri1 1 1 devoe $end
$var wire 1 2 ~QUARTUS_CREATED_GND~I_combout $end
$var wire 1 3 CLK~input_o $end
$var wire 1 4 CLK~inputCLKENA0_outclk $end
$var wire 1 5 RESET~input_o $end
$var wire 1 6 C[0]~0_combout $end
$var wire 1 7 C[0]~DUPLICATE_q $end
$var wire 1 8 Add0~1_sumout $end
$var wire 1 9 Add0~2 $end
$var wire 1 : Add0~5_sumout $end
$var wire 1 ; Add0~6 $end
$var wire 1 < Add0~9_sumout $end
$var wire 1 = Add0~10 $end
$var wire 1 > Add0~13_sumout $end
$var wire 1 ? Add0~14 $end
$var wire 1 @ Add0~17_sumout $end
$var wire 1 A Add0~18 $end
$var wire 1 B Add0~21_sumout $end
$var wire 1 C Add0~22 $end
$var wire 1 D Add0~25_sumout $end
$var wire 1 E C [7] $end
$var wire 1 F C [6] $end
$var wire 1 G C [5] $end
$var wire 1 H C [4] $end
$var wire 1 I C [3] $end
$var wire 1 J C [2] $end
$var wire 1 K C [1] $end
$var wire 1 L C [0] $end
$upscope $end
$upscope $end
$enddefinitions $end
#0
$dumpvars
0!
1"
0*
0)
0(
0'
0&
0%
0$
0#
x+
0,
1-
x.
1/
10
11
02
03
04
15
16
07
08
09
0:
0;
0<
0=
0>
0?
0@
0A
0B
0C
0D
0L
0K
0J
0I
0H
0G
0F
0E
$end
#10000
1!
13
0+
14
1L
17
1*
18
06
#20000
0!
03
1+
04
#30000
1!
13
0+
14
0L
1K
07
0*
1)
16
#40000
0!
03
1+
04
#50000
1!
13
0+
14
1L
17
19
1*
08
06
1:
#60000
0!
03
1+
04
#70000
1!
13
0+
14
0L
1J
0K
07
09
1;
0*
0)
1(
16
0:
0;
1:
1<
0<
#80000
0!
03
1+
04
#90000
1!
13
0+
14
1L
17
1*
18
06
#100000
0!
03
1+
04
#110000
1!
13
0+
14
0L
1K
07
0*
1)
16
#120000
0!
03
1+
04
#130000
1!
13
0+
14
1L
17
19
1*
08
06
1;
0:
1<
#140000
0!
03
1+
04
#150000
1!
13
0+
14
0L
1I
0J
0K
07
09
0;
1=
0*
0)
0(
1'
16
1:
0<
0=
0:
1<
1>
0>
#160000
0!
03
1+
04
#170000
1!
13
0+
14
1L
17
1*
18
06
#180000
0!
03
1+
04
#190000
1!
13
0+
14
0L
1K
07
0*
1)
16
#200000
0!
03
1+
04
#210000
1!
13
0+
14
1L
17
19
1*
08
06
1:
#220000
0!
03
1+
04
#230000
1!
13
0+
14
0L
1J
0K
07
09
1;
0*
0)
1(
16
0:
0;
1=
1:
0<
0=
1<
1>
0>
#240000
0!
03
1+
04
#250000
1!
13
0+
14
1L
17
1*
18
06
#260000
0!
03
1+
04
#270000
1!
13
0+
14
0L
1K
07
0*
1)
16
#280000
0!
03
1+
04
#290000
1!
13
0+
14
1L
17
19
1*
08
06
1;
0:
1=
0<
1>
#300000
0!
03
1+
04
#310000
1!
13
0+
14
0L
1H
0I
0J
0K
07
09
0;
0=
1?
0*
0)
0(
0'
1&
16
1:
1<
0>
0?
0:
0<
1>
1@
0@
#320000
0!
03
1+
04
#330000
1!
13
0+
14
1L
17
1*
18
06
#340000
0!
03
1+
04
#350000
1!
13
0+
14
0L
1K
07
0*
1)
16
#360000
0!
03
1+
04
#370000
1!
13
0+
14
1L
17
19
1*
08
06
1:
#380000
0!
03
1+
04
#390000
1!
13
0+
14
0L
1J
0K
07
09
1;
0*
0)
1(
16
0:
0;
1:
1<
0<
#400000
0!
03
1+
04
#410000
1!
13
0+
14
1L
17
1*
18
06
#420000
0!
03
1+
04
#430000
1!
13
0+
14
0L
1K
07
0*
1)
16
#440000
0!
03
1+
04
#450000
1!
13
0+
14
1L
17
19
1*
08
06
1;
0:
1<
#460000
0!
03
1+
04
#470000
1!
13
0+
14
0L
1I
0J
0K
07
09
0;
1=
0*
0)
0(
1'
16
1:
0<
0=
1?
0:
1<
0>
0?
1>
1@
0@
#480000
0!
03
1+
04
#490000
1!
13
0+
14
1L
17
1*
18
06
#500000
0!
03
1+
04
#510000
1!
13
0+
14
0L
1K
07
0*
1)
16
#520000
0!
03
1+
04
#530000
1!
13
0+
14
1L
17
19
1*
08
06
1:
#540000
0!
03
1+
04
#550000
1!
13
0+
14
0L
1J
0K
07
09
1;
0*
0)
1(
16
0:
0;
1=
1:
0<
0=
1?
1<
0>
0?
1>
1@
0@
#560000
0!
03
1+
04
#570000
1!
13
0+
14
1L
17
1*
18
06
#580000
0!
03
1+
04
#590000
1!
13
0+
14
0L
1K
07
0*
1)
16
#600000
0!
03
1+
04
#610000
1!
13
0+
14
1L
17
19
1*
08
06
1;
0:
1=
0<
1?
0>
1@
#620000
0!
03
1+
04
#630000
1!
13
0+
14
0L
1G
0H
0I
0J
0K
07
09
0;
0=
0?
1A
0*
0)
0(
0'
0&
1%
16
1:
1<
1>
0@
0A
0:
0<
0>
1@
1B
0B
#640000
0!
03
1+
04
#650000
1!
13
0+
14
1L
17
1*
18
06
#660000
0!
03
1+
04
#670000
1!
13
0+
14
0L
1K
07
0*
1)
16
#680000
0!
03
1+
04
#690000
1!
13
0+
14
1L
17
19
1*
08
06
1:
#700000
0!
03
1+
04
#710000
1!
13
0+
14
0L
1J
0K
07
09
1;
0*
0)
1(
16
0:
0;
1:
1<
0<
#720000
0!
03
1+
04
#730000
1!
13
0+
14
1L
17
1*
18
06
#740000
0!
03
1+
04
#750000
1!
13
0+
14
0L
1K
07
0*
1)
16
#760000
0"
0!
05
03
1+
04
0K
0J
0G
0%
0(
0)
0@
0:
08
#770000
1!
13
0+
14
#780000
0!
03
1+
04
#790000
1!
13
0+
14
#800000
0!
03
1+
04
#810000
1!
13
0+
14
#820000
0!
03
1+
04
#830000
1!
13
0+
14
#840000
0!
03
1+
04
#850000
1!
13
0+
14
#860000
0!
03
1+
04
#870000
1!
13
0+
14
#880000
0!
03
1+
04
#890000
1!
13
0+
14
#900000
0!
03
1+
04
#910000
1!
13
0+
14
#920000
0!
03
1+
04
#930000
1!
13
0+
14
#940000
0!
03
1+
04
#950000
1!
13
0+
14
#960000
0!
03
1+
04
#970000
1!
13
0+
14
#980000
1"
0!
15
03
1+
04
#990000
1!
13
0+
14
1L
17
1*
18
06
